ANNEE,SEXE,Salaire_net_annuel_moyen_en_euros,Evolution_du_Salaire_net_annuel_moyen_en_percent,Evolution_de_l_indice_des_prix_en_percent,Evolution_du_pouvoir_d_achat_du_salaire_net_annuel_moyen_en_percent,"Indice,base_100_en_1995"
1950,Ensemble,416,so,so,so,so
1950,Homme,444,so,so,so,so
1950,Femme,310,so,so,so,so
1951,Ensemble,480,"15,5","16,7","-1,0","100,0"
1951,Homme,530,"19,3","16,7","2,2","100,0"
1951,Femme,344,"10,8","16,7","-5,0","100,0"
1952,Ensemble,566,"17,9","12,2","5,1","105,1"
1952,Homme,622,"17,4","12,2","4,6","104,6"
1952,Femme,402,"16,9","12,2","4,2","104,2"
1953,Ensemble,580,"2,4","-0,9","3,4","108,6"
1953,Homme,637,"2,4","-0,9","3,4","108,2"
1953,Femme,412,"2,4","-0,9","3,4","107,7"
1954,Ensemble,634,"9,3","0,0","9,3","118,7"
1954,Homme,694,"9,0","0,0","9,0","117,8"
1954,Femme,462,"12,2","0,0","12,2","120,9"
1955,Ensemble,700,"10,5","0,9","9,5","130,0"
1955,Homme,771,"11,1","0,9","10,1","129,7"
1955,Femme,504,"9,1","0,9","8,2","130,7"
1956,Ensemble,774,"10,5","1,8","8,6","141,1"
1956,Homme,854,"10,9","1,8","8,9","141,2"
1956,Femme,550,"9,0","1,8","7,1","140,0"
1957,Ensemble,855,"10,5","2,7","7,6","151,8"
1957,Homme,947,"10,8","2,7","7,9","152,4"
1957,Femme,600,"9,1","2,7","6,2","148,8"
1958,Ensemble,952,"11,3","15,7","-3,8","146,1"
1958,Homme,1051,"11,1","15,7","-4,0","146,3"
1958,Femme,669,"11,5","15,7","-3,6","143,4"
1959,Ensemble,1013,"6,4","6,0","0,4","146,6"
1959,Homme,1122,"6,7","6,0","0,7","147,3"
1959,Femme,711,"6,4","6,0","0,4","143,9"
1960,Ensemble,1114,"10,0","3,5","6,3","155,8"
1960,Homme,1227,"9,4","3,5","5,7","155,7"
1960,Femme,789,"11,0","3,5","7,2","154,3"
1961,Ensemble,1203,"8,0","3,4","4,4","162,7"
1961,Homme,1327,"8,1","3,4","4,6","162,8"
1961,Femme,849,"7,5","3,4","4,0","160,4"
1962,Ensemble,1321,"9,7","4,6","4,9","170,7"
1962,Homme,1460,"10,0","4,6","5,2","171,2"
1962,Femme,941,"10,8","4,6","6,0","170,0"
1963,Ensemble,1452,"10,0","4,4","5,3","179,8"
1963,Homme,1604,"9,8","4,4","5,2","180,1"
1963,Femme,1037,"10,2","4,4","5,6","179,5"
1964,Ensemble,1545,"6,4","3,6","2,7","184,7"
1964,Homme,1714,"6,9","3,6","3,1","185,8"
1964,Femme,1099,"6,0","3,6","2,3","183,6"
1965,Ensemble,1638,"6,0","2,3","3,6","191,4"
1965,Homme,1820,"6,2","2,3","3,8","192,9"
1965,Femme,1168,"6,3","2,3","3,9","190,7"
1966,Ensemble,1741,"6,3","2,9","3,3","197,7"
1966,Homme,1935,"6,3","2,9","3,3","199,3"
1966,Femme,1240,"6,1","2,9","3,2","196,8"
1967,Ensemble,1834,"5,3","2,8","2,5","202,6"
1967,Homme,2036,"5,2","2,8","2,4","204,0"
1967,Femme,1316,"6,1","2,8","3,2","203,1"
1968,Ensemble,2019,"10,1","4,3","5,6","213,8"
1968,Homme,2231,"9,5","4,3","5,0","214,3"
1968,Femme,1479,"12,4","4,3","7,8","219,0"
1969,Ensemble,2236,"10,8","6,2","4,3","223,0"
1969,Homme,2473,"10,9","6,2","4,4","223,7"
1969,Femme,1648,"11,4","6,2","4,9","229,8"
1970,Ensemble,2446,"9,4","5,4","3,8","231,4"
1970,Homme,2711,"9,6","5,4","4,0","232,6"
1970,Femme,1807,"9,6","5,4","4,0","239,0"
1971,Ensemble,2712,"10,9","5,6","5,0","242,9"
1971,Homme,3020,"11,4","5,6","5,5","245,4"
1971,Femme,2002,"10,8","5,6","4,9","250,8"
1972,Ensemble,2985,"10,1","6,1","3,7","252,0"
1972,Homme,3330,"10,3","6,1","3,9","255,0"
1972,Femme,2218,"10,8","6,1","4,4","261,8"
1973,Ensemble,3346,"12,1","7,4","4,4","263,1"
1973,Homme,3746,"12,5","7,4","4,7","267,1"
1973,Femme,2487,"12,1","7,4","4,4","273,4"
1974,Ensemble,3924,"17,3","13,8","3,0","271,1"
1974,Homme,4388,"17,1","13,8","2,9","275,0"
1974,Femme,2946,"18,4","13,8","4,1","284,5"
1975,Ensemble,4495,"14,5","11,5","2,7","278,5"
1975,Homme,5009,"14,2","11,5","2,4","281,5"
1975,Femme,3424,"16,3","11,5","4,3","296,6"
1976,Ensemble,5205,"15,8","10,0","5,3","293,2"
1976,Homme,5799,"15,8","10,0","5,2","296,3"
1976,Femme,4009,"17,1","10,0","6,4","315,7"
1977,Ensemble,5741,"10,3","9,1","1,1","296,4"
1977,Homme,6380,"10,0","9,1","0,8","298,8"
1977,Femme,4465,"11,4","9,1","2,1","322,3"
1978,Ensemble,6501,"13,2","9,1","3,8","307,7"
1978,Homme,7223,"13,2","9,1","3,8","310,1"
1978,Femme,5102,"14,3","9,1","4,7","337,5"
1979,Ensemble,7060,"8,6","10,9","-2,1","301,3"
1979,Homme,7804,"8,0","10,9","-2,6","302,0"
1979,Femme,5616,"10,1","10,9","-0,7","335,0"
1980,Ensemble,8038,"13,8","13,4","0,4","302,5"
1980,Homme,8881,"13,8","13,4","0,4","303,1"
1980,Femme,6418,"14,3","13,4","0,8","337,6"
1981,Ensemble,9096,"13,2","13,4","-0,2","301,8"
1981,Homme,10041,"13,1","13,4","-0,3","302,2"
1981,Femme,7298,"13,7","13,4","0,3","338,5"
1982,Ensemble,10347,"13,8","11,8","1,7","307,1"
1982,Homme,11411,"13,6","11,8","1,6","307,2"
1982,Femme,8343,"14,3","11,8","2,3","346,2"
1983,Ensemble,11440,"10,6","9,6","0,9","309,8"
1983,Homme,12587,"10,3","9,6","0,6","309,2"
1983,Femme,9287,"11,3","9,6","1,6","351,6"
1984,Ensemble,12255,"7,1","7,4","-0,3","309,0"
1984,Homme,13464,"7,0","7,4","-0,4","307,9"
1984,Femme,9996,"7,6","7,4","0,2","352,4"
1985,Ensemble,13127,"7,1","5,8","1,2","312,9"
1985,Homme,14430,"7,2","5,8","1,3","311,9"
1985,Femme,10718,"7,2","5,8","1,3","357,1"
1986,Ensemble,13829,"5,3","2,7","2,6","320,9"
1986,Homme,15212,"5,4","2,7","2,6","320,2"
1986,Femme,11302,"5,5","2,7","2,7","366,7"
1987,Ensemble,14208,"2,7","3,1","-0,3","319,8"
1987,Homme,15639,"2,8","3,1","-0,3","319,3"
1987,Femme,11590,"2,5","3,1","-0,5","364,7"
1988,Ensemble,14622,"2,9","2,7","0,2","320,5"
1988,Homme,16093,"2,9","2,7","0,2","319,9"
1988,Femme,11991,"3,5","2,7","0,7","367,4"
1989,Ensemble,15270,"4,4","3,6","0,8","323,0"
1989,Homme,16776,"4,2","3,6","0,6","321,9"
1989,Femme,12561,"4,7","3,6","1,1","371,5"
1990,Ensemble,16065,"5,2","3,4","1,8","328,7"
1990,Homme,17643,"5,2","3,4","1,7","327,4"
1990,Femme,13258,"5,6","3,4","2,1","379,2"
1991,Ensemble,16638,"3,6","3,2","0,4","329,9"
1991,Homme,18266,"3,5","3,2","0,3","328,5"
1991,Femme,13772,"3,9","3,2","0,7","381,7"
1992,Ensemble,17072,"2,6","2,4","0,2","330,5"
1992,Homme,18708,"2,4","2,4","0,0","328,5"
1992,Femme,14225,"3,3","2,4","0,9","385,0"
1993,Ensemble,17507,"1,5","2,1","-0,6","328,6"
1993,Homme,18999,"1,6","2,1","-0,5","326,8"
1993,Femme,14894,"4,7","2,1","2,6","394,8"
1994,Ensemble,17577,"0,4","1,7","-1,3","324,4"
1994,Homme,19054,"0,3","1,7","-1,4","322,2"
1994,Femme,14703,"-1,3","1,7","-2,9","383,2"
1995,Ensemble,18244,"3,8","1,7","2,1","331,1"
1995,Homme,19580,"2,8","1,7","1,0","325,6"
1995,Femme,15606,"6,1","1,7","4,4","400,0"
1996,Ensemble,18512,"1,5","2,0","-0,5","329,3"
1996,Homme,19896,"1,6","2,0","-0,4","324,4"
1996,Femme,15782,"1,1","2,0","-0,9","396,6"
1997,Ensemble,18901,"2,1","1,2","0,9","332,3"
1997,Homme,20278,"1,9","1,2","0,7","326,7"
1997,Femme,16187,"2,6","1,2","1,4","401,9"
1998,Ensemble,19229,"1,7","0,7","1,0","335,7"
1998,Homme,20607,"1,6","0,7","0,9","329,7"
1998,Femme,16506,"2,0","0,7","1,3","407,0"
1999,Ensemble,19632,"2,1","0,5","1,6","341,0"
1999,Homme,21033,"2,1","0,5","1,6","334,8"
1999,Femme,16861,"2,2","0,5","1,6","413,7"
2000,Ensemble,20060,"2,2","1,7","0,5","342,6"
2000,Homme,21498,"2,2","1,7","0,5","336,5"
2000,Femme,17259,"2,4","1,7","0,6","416,4"
2001,Ensemble,20474,"2,1","1,7","0,4","343,9"
2001,Homme,21889,"1,8","1,7","0,1","336,9"
2001,Femme,17651,"2,3","1,7","0,6","418,7"
2002,Ensemble,20951,"2,3","1,9","0,4","345,3"
2002,Homme,22422,"2,4","1,9","0,5","338,7"
2002,Femme,18072,"2,4","1,9","0,5","420,7"
2003,Ensemble,21342,"1,9","2,1","-0,2","344,5"
2003,Homme,22840,"1,9","2,1","-0,2","337,9"
2003,Femme,18443,"2,1","2,1","0,0","420,5"
2004,Ensemble,21805,"2,2","2,1","0,1","344,7"
2004,Homme,23360,"2,3","2,1","0,2","338,5"
2004,Femme,18858,"2,3","2,1","0,1","421,1"
2005,Ensemble,22443,"2,9","1,8","1,1","348,6"
2005,Homme,24007,"2,8","1,8","1,0","341,7"
2005,Femme,19500,"3,4","1,8","1,6","427,8"
2006,Ensemble,22809,"1,6","1,6","0,0","348,7"
2006,Homme,24370,"1,5","1,6","-0,1","341,4"
2006,Femme,19866,"1,9","1,6","0,3","428,9"
2007,Ensemble,23527,"3,1","1,5","1,6","354,3"
2007,Homme,25168,"3,3","1,5","1,7","347,4"
2007,Femme,20472,"3,1","1,5","1,5","435,5"
2008,Ensemble,24287,"3,2","2,8","0,4","355,8"
2008,Homme,26010,"3,3","2,8","0,5","349,2"
2008,Femme,21135,"3,2","2,8","0,4","437,3"
2009,Ensemble,24626,"1,4","0,1","1,3","360,4"
2009,Homme,26300,"1,1","0,1","1,0","352,7"
2009,Femme,21593,"2,2","0,1","2,1","446,4"
2010,Ensemble,25139,"2,1","1,5","0,6","362,5"
2010,Homme,26831,"2,0","1,5","0,5","354,5"
2010,Femme,22112,"2,4","1,5","0,9","450,3"
